//
// Created by Yaokai Liu on 1/28/23.
//

#ifndef BLOCK3D_ITEM_DATA_DATA
#define BLOCK3D_ITEM_DATA_DATA
#include "Item.h"

const static ItemTypeStaticStruct ITEM_TYPE_STATIC_TABLE[] = {
    [BASIC_ITEM] = {.model = 0, .name = "basic_item", .methods = NULL},
    [REDSTONE_BLOCK_ITEM] = {.model = REDSTONE_BLOCK_ITEM, .name = "redstone_block", .methods = NULL}
};

const static ItemAttrStruct ITEM_INIT_ATTRIBUTE_TABLE[] = {
        [BASIC_ITEM] = { },
        [REDSTONE_BLOCK_ITEM] = { },
};

#endif //BLOCK3D_ITEM_DATA_DATA
