//
// Created by Yaokai Liu on 1/28/23.
//
#ifndef BLOCK3D_ITEM_LIST_DATA
#define BLOCK3D_ITEM_LIST_DATA

enum item_list {
    VOID_ITEM = 0,
    BASIC_ITEM = VOID_ITEM,

    REDSTONE_BLOCK_ITEM,

    DEBUG_ITEM = ((uint32_t) -1) // MAX_ENUMERATE
    // Please do not add more enumerate item after this.
};

#endif // BLOCK3D_ITEM_LIST_DATA
